name,description,date,publisher,price,category,reportType,continent,region,country,noOfPages,code,src,publishedType,companiesCovered
name-1,description-1,"3 January, 2018",99-Reports ,477,Automotive,Upcoming Reports,Africa,Asia Pacific,Afghanistan,570,QWERTY,images/industries/1.png,Published Market Research,Tadbik Ltd
name-2,description-2,"6 January, 2020",99Strategy,662,Automotive,Published Reports,Asia,Bric,Albania,578,UIOPAS,images/industries/1.png,Planned Market Research,Primpack SAE
name-3,description-3,"6 Feburary, 2020",9Dimen Research,763,Automotive,Upcoming Reports,Australia,Caribbean,Algeria,436,DFGHJK,images/industries/1.png,Published Market Research,Clinique Laboratories llc
name-4,description-4,"7 March, 2019",Adroit Healthcare Services,68,Automotive,Published Reports,Europe,Central Asia,American Samoa,260,LZXCVB,images/industries/1.png,Planned Market Research,Spectrasensors Inc.
name-5,description-5,"9 March, 2017",Azoth Analytics,453,Automotive,Upcoming Reports,North America,Central America,Andorra,354,NMQWER,images/industries/1.png,Published Market Research,The Honest Company Inc
name-6,description-6,"31 March, 2019",BCC Research,298,Automotive,Published Reports,Africa,CIS,Angola,225,TYUIOP,images/industries/1.png,Planned Market Research,Tadbik Ltd
name-7,description-7,"18 June, 2019",BIS Report,794,Automotive,Upcoming Reports,Asia,East Europe,Anguilla,928,ASDFGH,images/industries/1.png,Published Market Research,Primpack SAE
name-8,description-8,"13 July, 2018",Bizwit Research & Consulting LLP,221,Automotive,Published Reports,Australia,European Union,Antarctica,488,JKLZXC,images/industries/1.png,Planned Market Research,Clinique Laboratories llc
name-9,description-9,"22 August, 2017",Black Swan Analysis,490,Automotive,Upcoming Reports,Europe,G20,Antigua and Barbuda,920,QWERTY,images/industries/1.png,Published Market Research,Spectrasensors Inc.
name-10,description-10,"16 September, 2019",BlueWeave Consulting & Resarch Pvt Ltd,673,Automotive,Published Reports,North America,G8,Argentina,203,UIOPAS,images/industries/1.png,Planned Market Research,The Honest Company Inc
name-11,description-11,"5 September, 2009",Chlue Research,537,Automotive,Upcoming Reports,Africa,Latin America,Armenia,263,DFGHJK,images/industries/1.png,Published Market Research,Tadbik Ltd
name-12,description-12,"11 November, 2011",Current Partnering,940,Automotive,Published Reports,Asia,Micronesia,Aruba,601,LZXCVB,images/industries/1.png,Planned Market Research,Primpack SAE
name-13,description-13,"29 November, 2017",DataM Intelligence,179,Automotive,Upcoming Reports,Australia,Middle Africa,Australia,286,NMQWER,images/industries/1.png,Published Market Research,Clinique Laboratories llc
name-14,description-14,2 December 2019,DataMarketResearch,74,Automotive,Published Reports,Europe,Middle East,Austria,793,TYUIOP,images/industries/1.png,Planned Market Research,Spectrasensors Inc.
name-15,description-15,19 December 2009,DelveInsight,614,Automotive,Upcoming Reports,North America,NAFTA,Azerbaijan,680,ASDFGH,images/industries/1.png,Published Market Research,The Honest Company Inc
name-16,description-16,"3 January, 2018",Detailed Analysis Research,608,Automotive,Published Reports,Africa,Nothern Africa,Bahamas,619,JKLZXC,images/industries/1.png,Planned Market Research,Tadbik Ltd
name-17,description-17,"6 January, 2020",99-Reports ,523,Automotive,Upcoming Reports,Asia,Northern Europe,Bahrain,620,QWERTY,images/industries/1.png,Published Market Research,Primpack SAE
name-18,description-18,"6 Feburary, 2020",99Strategy,364,Automotive,Published Reports,Australia,Ocenia,Bangladesh,645,UIOPAS,images/industries/1.png,Planned Market Research,Clinique Laboratories llc
name-19,description-19,"7 March, 2019",9Dimen Research,922,Automotive,Upcoming Reports,Europe,Scandinavia,Barbados,337,DFGHJK,images/industries/1.png,Published Market Research,Spectrasensors Inc.
name-20,description-20,"9 March, 2017",Adroit Healthcare Services,105,Automotive,Published Reports,North America,South Asia,Belarus,548,LZXCVB,images/industries/1.png,Planned Market Research,The Honest Company Inc
name-21,description-21,"31 March, 2019",Azoth Analytics,650,Automotive,Upcoming Reports,Africa,Southern Africa,Belgium,139,NMQWER,images/industries/1.png,Published Market Research,Tadbik Ltd
name-22,description-22,"18 June, 2019",BCC Research,695,Automotive,Published Reports,Asia,West Africa,Belize,153,TYUIOP,images/industries/1.png,Planned Market Research,Primpack SAE
name-23,description-23,"13 July, 2018",BIS Report,67,Automotive,Upcoming Reports,Australia,West Europe,Benin,354,ASDFGH,images/industries/1.png,Published Market Research,Clinique Laboratories llc
name-24,description-24,"22 August, 2017",Bizwit Research & Consulting LLP,393,Automotive,Published Reports,Europe,,Bermuda,336,JKLZXC,images/industries/1.png,Planned Market Research,Spectrasensors Inc.
name-25,description-25,"16 September, 2019",Black Swan Analysis,569,Automotive,Upcoming Reports,North America,,Bhutan,670,QWERTY,images/industries/1.png,Published Market Research,The Honest Company Inc
name-26,description-26,"5 September, 2009",BlueWeave Consulting & Resarch Pvt Ltd,886,Automotive,Published Reports,Africa,,Bolivia,686,UIOPAS,images/industries/1.png,Planned Market Research,Tadbik Ltd
name-27,description-27,"11 November, 2011",Chlue Research,338,Automotive,Upcoming Reports,Asia,,Bosnia and Herzegovina,767,DFGHJK,images/industries/1.png,Published Market Research,Primpack SAE
name-28,description-28,"29 November, 2017",Current Partnering,273,Automotive,Published Reports,Australia,,Botswana,917,LZXCVB,images/industries/1.png,Planned Market Research,Clinique Laboratories llc
name-29,description-29,2 December 2019,DataM Intelligence,847,Automotive,Upcoming Reports,Europe,,Bouvet Island,289,NMQWER,images/industries/1.png,Published Market Research,Spectrasensors Inc.
name-30,description-30,19 December 2009,DataMarketResearch,541,Automotive,Published Reports,North America,,Brazil,639,TYUIOP,images/industries/1.png,Planned Market Research,The Honest Company Inc
name-31,description-31,"3 January, 2018",DelveInsight,887,Automotive,Upcoming Reports,Africa,,British Indian Ocean Territory,434,ASDFGH,images/industries/1.png,Published Market Research,Tadbik Ltd
name-32,description-32,"6 January, 2020",Detailed Analysis Research,248,Automotive,Published Reports,Asia,,Brunei,788,JKLZXC,images/industries/1.png,Planned Market Research,Primpack SAE
name-33,description-33,"6 Feburary, 2020",99-Reports ,302,Automotive,Upcoming Reports,Australia,,Bulgaria,199,QWERTY,images/industries/1.png,Published Market Research,Clinique Laboratories llc
name-34,description-34,"7 March, 2019",99Strategy,589,Automotive,Published Reports,Europe,,Burkina Faso,355,UIOPAS,images/industries/1.png,Planned Market Research,Spectrasensors Inc.
name-35,description-35,"9 March, 2017",9Dimen Research,720,Automotive,Upcoming Reports,North America,,Burundi,112,DFGHJK,images/industries/1.png,Published Market Research,The Honest Company Inc
name-36,description-36,"31 March, 2019",Adroit Healthcare Services,923,Automotive,Published Reports,Africa,,Cambodia,618,LZXCVB,images/industries/1.png,Planned Market Research,Tadbik Ltd
name-37,description-37,"18 June, 2019",Azoth Analytics,215,Automotive,Upcoming Reports,Asia,,Cameroon,749,NMQWER,images/industries/1.png,Published Market Research,Primpack SAE
name-38,description-38,"13 July, 2018",BCC Research,152,Automotive,Published Reports,Australia,,Canada,130,TYUIOP,images/industries/1.png,Planned Market Research,Clinique Laboratories llc
name-39,description-39,"22 August, 2017",BIS Report,169,Automotive,Upcoming Reports,Europe,,Cape Verde,189,ASDFGH,images/industries/1.png,Published Market Research,Spectrasensors Inc.
name-40,description-40,"16 September, 2019",Bizwit Research & Consulting LLP,318,Automotive,Published Reports,North America,,Cayman Islands,814,JKLZXC,images/industries/1.png,Planned Market Research,The Honest Company Inc
name-41,description-41,"5 September, 2009",Black Swan Analysis,191,Automotive,Upcoming Reports,Africa,,Central African Republic,542,QWERTY,images/industries/1.png,Published Market Research,Tadbik Ltd
name-42,description-42,"11 November, 2011",BlueWeave Consulting & Resarch Pvt Ltd,821,Automotive,Published Reports,Asia,,Chad,629,UIOPAS,images/industries/1.png,Planned Market Research,Primpack SAE
name-43,description-43,"29 November, 2017",Chlue Research,781,Automotive,Upcoming Reports,Australia,,Chile,335,DFGHJK,images/industries/1.png,Published Market Research,Clinique Laboratories llc
name-44,description-44,2 December 2019,Current Partnering,285,Automotive,Published Reports,Europe,,China,948,LZXCVB,images/industries/1.png,Planned Market Research,Spectrasensors Inc.
name-45,description-45,19 December 2009,DataM Intelligence,25,Automotive,Upcoming Reports,North America,,Christmas Island,769,NMQWER,images/industries/1.png,Published Market Research,The Honest Company Inc
name-46,description-46,"3 January, 2018",DataMarketResearch,317,Automotive,Published Reports,Africa,,Cocos (Keeling) Islands,313,TYUIOP,images/industries/1.png,Planned Market Research,Tadbik Ltd
name-47,description-47,"6 January, 2020",DelveInsight,452,Automotive,Upcoming Reports,Asia,,Colombia,649,ASDFGH,images/industries/1.png,Published Market Research,Primpack SAE
name-48,description-48,"6 Feburary, 2020",Detailed Analysis Research,173,Automotive,Published Reports,Australia,,Comoros,886,JKLZXC,images/industries/1.png,Planned Market Research,Clinique Laboratories llc
name-49,description-49,"7 March, 2019",99-Reports ,620,Automotive,Upcoming Reports,Europe,,Congo,124,QWERTY,images/industries/1.png,Published Market Research,Spectrasensors Inc.
name-50,description-50,"9 March, 2017",99Strategy,104,Automotive,Published Reports,North America,,The Democratic Republic of Congo,185,UIOPAS,images/industries/1.png,Planned Market Research,The Honest Company Inc
name-51,description-51,"31 March, 2019",9Dimen Research,834,Automotive,Upcoming Reports,Africa,,Cook Islands,804,DFGHJK,images/industries/1.png,Published Market Research,Tadbik Ltd
name-52,description-52,"18 June, 2019",Adroit Healthcare Services,914,Automotive,Published Reports,Asia,,Costa Rica,937,LZXCVB,images/industries/1.png,Planned Market Research,Primpack SAE
name-53,description-53,"13 July, 2018",Azoth Analytics,518,Automotive,Upcoming Reports,Australia,,Ivory Coast,735,NMQWER,images/industries/1.png,Published Market Research,Clinique Laboratories llc
name-54,description-54,"22 August, 2017",BCC Research,114,Automotive,Published Reports,Europe,,Croatia,251,TYUIOP,images/industries/1.png,Planned Market Research,Spectrasensors Inc.
name-55,description-55,"16 September, 2019",BIS Report,388,Automotive,Upcoming Reports,North America,,Cuba,475,ASDFGH,images/industries/1.png,Published Market Research,The Honest Company Inc
name-56,description-56,"5 September, 2009",Bizwit Research & Consulting LLP,310,Automotive,Published Reports,Africa,,Cyprus,569,JKLZXC,images/industries/1.png,Planned Market Research,Tadbik Ltd
name-57,description-57,"11 November, 2011",Black Swan Analysis,40,Automotive,Upcoming Reports,Asia,,Czech Republic,938,QWERTY,images/industries/1.png,Published Market Research,Primpack SAE
name-58,description-58,"29 November, 2017",BlueWeave Consulting & Resarch Pvt Ltd,879,Automotive,Published Reports,Australia,,Denmark,891,UIOPAS,images/industries/1.png,Planned Market Research,Clinique Laboratories llc
name-59,description-59,2 December 2019,Chlue Research,420,Automotive,Upcoming Reports,Europe,,Djibouti,386,DFGHJK,images/industries/1.png,Published Market Research,Spectrasensors Inc.
name-60,description-60,19 December 2009,Current Partnering,941,Automotive,Published Reports,North America,,Dominica,452,LZXCVB,images/industries/1.png,Planned Market Research,The Honest Company Inc
name-61,description-61,"3 January, 2018",DataM Intelligence,854,Automotive,Upcoming Reports,Africa,,Dominican Republic,224,NMQWER,images/industries/1.png,Published Market Research,Tadbik Ltd
name-62,description-62,"6 January, 2020",DataMarketResearch,379,Automotive,Published Reports,Asia,,East Timor,559,TYUIOP,images/industries/1.png,Planned Market Research,Primpack SAE
name-63,description-63,"6 Feburary, 2020",DelveInsight,886,Automotive,Upcoming Reports,Australia,,Ecuador,301,ASDFGH,images/industries/1.png,Published Market Research,Clinique Laboratories llc
name-64,description-64,"7 March, 2019",Detailed Analysis Research,330,Automotive,Published Reports,Europe,,Egypt,906,JKLZXC,images/industries/1.png,Planned Market Research,Spectrasensors Inc.
name-65,description-65,"9 March, 2017",99-Reports ,299,Automotive,Upcoming Reports,North America,,England,759,QWERTY,images/industries/1.png,Published Market Research,The Honest Company Inc
name-66,description-66,"31 March, 2019",99Strategy,726,Automotive,Published Reports,Africa,,El Salvador,610,UIOPAS,images/industries/1.png,Planned Market Research,Tadbik Ltd
name-67,description-67,"18 June, 2019",9Dimen Research,938,Automotive,Upcoming Reports,Asia,,Equatorial Guinea,756,DFGHJK,images/industries/1.png,Published Market Research,Primpack SAE
name-68,description-68,"13 July, 2018",Adroit Healthcare Services,13,Automotive,Published Reports,Australia,,Eritrea,941,LZXCVB,images/industries/1.png,Planned Market Research,Clinique Laboratories llc
name-69,description-69,"22 August, 2017",Azoth Analytics,302,Automotive,Upcoming Reports,Europe,,Estonia,722,NMQWER,images/industries/1.png,Published Market Research,Spectrasensors Inc.
name-70,description-70,"16 September, 2019",BCC Research,505,Automotive,Published Reports,North America,,Ethiopia,484,TYUIOP,images/industries/1.png,Planned Market Research,The Honest Company Inc
name-71,description-71,"5 September, 2009",BIS Report,405,Automotive,Upcoming Reports,Africa,,East Timor,662,ASDFGH,images/industries/1.png,Published Market Research,Tadbik Ltd
name-72,description-72,"11 November, 2011",Bizwit Research & Consulting LLP,93,Automotive,Published Reports,Asia,,Ecuador,836,JKLZXC,images/industries/1.png,Planned Market Research,Primpack SAE
name-73,description-73,"29 November, 2017",Black Swan Analysis,855,Automotive,Upcoming Reports,Australia,,Egypt,442,QWERTY,images/industries/1.png,Published Market Research,Clinique Laboratories llc
name-74,description-74,2 December 2019,BlueWeave Consulting & Resarch Pvt Ltd,692,Automotive,Published Reports,Europe,,England,775,UIOPAS,images/industries/1.png,Planned Market Research,Spectrasensors Inc.
name-75,description-75,19 December 2009,Chlue Research,960,Automotive,Upcoming Reports,North America,,El Salvador,694,DFGHJK,images/industries/1.png,Published Market Research,The Honest Company Inc
name-76,description-76,"3 January, 2018",Current Partnering,520,Automotive,Published Reports,Africa,,Equatorial Guinea,265,LZXCVB,images/industries/1.png,Planned Market Research,Tadbik Ltd
name-77,description-77,"6 January, 2020",DataM Intelligence,272,Automotive,Upcoming Reports,Asia,,Eritrea,123,NMQWER,images/industries/1.png,Published Market Research,Primpack SAE
name-78,description-78,"6 Feburary, 2020",DataMarketResearch,489,Automotive,Published Reports,Australia,,Estonia,145,TYUIOP,images/industries/1.png,Planned Market Research,Clinique Laboratories llc
name-79,description-79,"7 March, 2019",DelveInsight,902,Automotive,Upcoming Reports,Europe,,Ethiopia,501,ASDFGH,images/industries/1.png,Published Market Research,Spectrasensors Inc.
name-80,description-80,"9 March, 2017",Detailed Analysis Research,480,Automotive,Published Reports,North America,,Falkland Islands,405,JKLZXC,images/industries/1.png,Planned Market Research,The Honest Company Inc
name-81,description-81,"31 March, 2019",99-Reports ,432,Automotive,Upcoming Reports,Africa,,Faroe Islands,916,QWERTY,images/industries/1.png,Published Market Research,Tadbik Ltd
name-82,description-82,"18 June, 2019",99Strategy,143,Automotive,Published Reports,Asia,,Fiji Islands,554,UIOPAS,images/industries/1.png,Planned Market Research,Primpack SAE
name-83,description-83,"13 July, 2018",9Dimen Research,898,Automotive,Upcoming Reports,Australia,,Finland,161,DFGHJK,images/industries/1.png,Published Market Research,Clinique Laboratories llc
name-84,description-84,"22 August, 2017",Adroit Healthcare Services,904,Automotive,Published Reports,Europe,,France,775,LZXCVB,images/industries/1.png,Planned Market Research,Spectrasensors Inc.
name-85,description-85,"16 September, 2019",Azoth Analytics,142,Automotive,Upcoming Reports,North America,,French Guiana,568,NMQWER,images/industries/1.png,Published Market Research,The Honest Company Inc
name-86,description-86,"5 September, 2009",BCC Research,593,Automotive,Published Reports,Africa,,French Polynesia,585,TYUIOP,images/industries/1.png,Planned Market Research,Tadbik Ltd
name-87,description-87,"11 November, 2011",BIS Report,577,Automotive,Upcoming Reports,Asia,,French Southern territories,771,ASDFGH,images/industries/1.png,Published Market Research,Primpack SAE
name-88,description-88,"29 November, 2017",Bizwit Research & Consulting LLP,623,Automotive,Published Reports,Australia,,Gabon,323,JKLZXC,images/industries/1.png,Planned Market Research,Clinique Laboratories llc
name-89,description-89,2 December 2019,Black Swan Analysis,184,Automotive,Upcoming Reports,Europe,,Gambia,743,QWERTY,images/industries/1.png,Published Market Research,Spectrasensors Inc.
name-90,description-90,19 December 2009,BlueWeave Consulting & Resarch Pvt Ltd,368,Automotive,Published Reports,North America,,Georgia,108,UIOPAS,images/industries/1.png,Planned Market Research,The Honest Company Inc
name-91,description-91,"3 January, 2018",Chlue Research,233,Automotive,Upcoming Reports,Africa,,Germany,776,DFGHJK,images/industries/1.png,Published Market Research,Tadbik Ltd
name-92,description-92,"6 January, 2020",Current Partnering,815,Automotive,Published Reports,Asia,,Ghana,497,LZXCVB,images/industries/1.png,Planned Market Research,Primpack SAE
name-93,description-93,"6 Feburary, 2020",DataM Intelligence,892,Automotive,Upcoming Reports,Australia,,Gibraltar,968,NMQWER,images/industries/1.png,Published Market Research,Clinique Laboratories llc
name-94,description-94,"7 March, 2019",DataMarketResearch,126,Automotive,Published Reports,Europe,,Greece,817,TYUIOP,images/industries/1.png,Planned Market Research,Spectrasensors Inc.
name-95,description-95,"9 March, 2017",DelveInsight,376,Automotive,Upcoming Reports,North America,,Greenland,736,ASDFGH,images/industries/1.png,Published Market Research,The Honest Company Inc
name-96,description-96,"31 March, 2019",Detailed Analysis Research,639,Automotive,Published Reports,Africa,,Grenada,266,JKLZXC,images/industries/1.png,Planned Market Research,Tadbik Ltd
name-97,description-97,"18 June, 2019",99-Reports ,697,Automotive,Upcoming Reports,Asia,,Guadeloupe,825,QWERTY,images/industries/1.png,Published Market Research,Primpack SAE
name-98,description-98,"13 July, 2018",99Strategy,724,Automotive,Published Reports,Australia,,Guam,517,UIOPAS,images/industries/1.png,Planned Market Research,Clinique Laboratories llc
name-99,description-99,"22 August, 2017",9Dimen Research,516,Automotive,Upcoming Reports,Europe,,Guatemala,309,DFGHJK,images/industries/1.png,Published Market Research,Spectrasensors Inc.
name-100,description-100,"16 September, 2019",Adroit Healthcare Services,507,Automotive,Published Reports,North America,,Guernsey,560,LZXCVB,images/industries/1.png,Planned Market Research,The Honest Company Inc
name-101,description-101,"5 September, 2009",Azoth Analytics,56,Automotive,Upcoming Reports,Africa,,Guinea,739,NMQWER,images/industries/1.png,Published Market Research,Tadbik Ltd
name-102,description-102,"11 November, 2011",BCC Research,106,Automotive,Published Reports,Asia,,Guinea-Bissau,298,TYUIOP,images/industries/1.png,Planned Market Research,Primpack SAE
name-103,description-103,"29 November, 2017",BIS Report,901,Automotive,Upcoming Reports,Australia,,Guyana,946,ASDFGH,images/industries/1.png,Published Market Research,Clinique Laboratories llc
name-104,description-104,2 December 2019,Bizwit Research & Consulting LLP,285,Automotive,Published Reports,Europe,,Haiti,352,JKLZXC,images/industries/1.png,Planned Market Research,Spectrasensors Inc.
name-105,description-105,19 December 2009,Black Swan Analysis,256,Automotive,Upcoming Reports,North America,,Heard Island and McDonald Islands,568,QWERTY,images/industries/1.png,Published Market Research,The Honest Company Inc
name-106,description-106,"3 January, 2018",BlueWeave Consulting & Resarch Pvt Ltd,135,Automotive,Published Reports,Africa,,Holy See (Vatican City State),824,UIOPAS,images/industries/1.png,Planned Market Research,Tadbik Ltd
name-107,description-107,"6 January, 2020",Chlue Research,814,Automotive,Upcoming Reports,Asia,,Honduras,702,DFGHJK,images/industries/1.png,Published Market Research,Primpack SAE
name-108,description-108,"6 Feburary, 2020",Current Partnering,888,Automotive,Published Reports,Australia,,Hong Kong,978,LZXCVB,images/industries/1.png,Planned Market Research,Clinique Laboratories llc
name-109,description-109,"7 March, 2019",DataM Intelligence,427,Automotive,Upcoming Reports,Europe,,Hungary,964,NMQWER,images/industries/1.png,Published Market Research,Spectrasensors Inc.
name-110,description-110,"9 March, 2017",DataMarketResearch,900,Automotive,Published Reports,North America,,Iceland,150,TYUIOP,images/industries/1.png,Planned Market Research,The Honest Company Inc
name-111,description-111,"31 March, 2019",DelveInsight,316,Automotive,Upcoming Reports,Africa,,India,951,ASDFGH,images/industries/1.png,Published Market Research,Tadbik Ltd
name-112,description-112,"18 June, 2019",Detailed Analysis Research,86,Automotive,Published Reports,Asia,,Indonesia,517,JKLZXC,images/industries/1.png,Planned Market Research,Primpack SAE
name-113,description-113,"13 July, 2018",99-Reports ,86,Automotive,Upcoming Reports,Australia,,Iran,639,QWERTY,images/industries/1.png,Published Market Research,Clinique Laboratories llc
name-114,description-114,"22 August, 2017",99Strategy,120,Automotive,Published Reports,Europe,,Iraq,921,UIOPAS,images/industries/1.png,Planned Market Research,Spectrasensors Inc.
name-115,description-115,"16 September, 2019",9Dimen Research,298,Automotive,Upcoming Reports,North America,,Ireland,657,DFGHJK,images/industries/1.png,Published Market Research,The Honest Company Inc
name-116,description-116,"5 September, 2009",Adroit Healthcare Services,977,Automotive,Published Reports,Africa,,Israel,341,LZXCVB,images/industries/1.png,Planned Market Research,Tadbik Ltd
name-117,description-117,"11 November, 2011",Azoth Analytics,687,Automotive,Upcoming Reports,Asia,,Isle of Man,205,NMQWER,images/industries/1.png,Published Market Research,Primpack SAE
name-118,description-118,"29 November, 2017",BCC Research,97,Automotive,Published Reports,Australia,,Italy,293,TYUIOP,images/industries/1.png,Planned Market Research,Clinique Laboratories llc
name-119,description-119,2 December 2019,BIS Report,138,Automotive,Upcoming Reports,Europe,,Jamaica,765,ASDFGH,images/industries/1.png,Published Market Research,Spectrasensors Inc.
name-120,description-120,19 December 2009,Bizwit Research & Consulting LLP,812,Automotive,Published Reports,North America,,Japan,878,JKLZXC,images/industries/1.png,Planned Market Research,The Honest Company Inc
name-121,description-121,"3 January, 2018",Black Swan Analysis,715,Automotive,Upcoming Reports,Africa,,Jersey,674,QWERTY,images/industries/1.png,Published Market Research,Tadbik Ltd
name-122,description-122,"6 January, 2020",BlueWeave Consulting & Resarch Pvt Ltd,857,Automotive,Published Reports,Asia,,Jordan,383,UIOPAS,images/industries/1.png,Planned Market Research,Primpack SAE
name-123,description-123,"6 Feburary, 2020",Chlue Research,96,Automotive,Upcoming Reports,Australia,,Kazakhstan,853,DFGHJK,images/industries/1.png,Published Market Research,Clinique Laboratories llc
name-124,description-124,"7 March, 2019",Current Partnering,664,Automotive,Published Reports,Europe,,Kenya,820,LZXCVB,images/industries/1.png,Planned Market Research,Spectrasensors Inc.
name-125,description-125,"9 March, 2017",DataM Intelligence,781,Automotive,Upcoming Reports,North America,,Kiribati,481,NMQWER,images/industries/1.png,Published Market Research,The Honest Company Inc
name-126,description-126,"31 March, 2019",DataMarketResearch,49,Automotive,Published Reports,Africa,,Kuwait,684,TYUIOP,images/industries/1.png,Planned Market Research,Tadbik Ltd
name-127,description-127,"18 June, 2019",DelveInsight,266,Automotive,Upcoming Reports,Asia,,Kyrgyzstan,902,ASDFGH,images/industries/1.png,Published Market Research,Primpack SAE
name-128,description-128,"13 July, 2018",Detailed Analysis Research,412,Automotive,Published Reports,Australia,,Laos,966,JKLZXC,images/industries/1.png,Planned Market Research,Clinique Laboratories llc
name-129,description-129,"22 August, 2017",99-Reports ,597,Automotive,Upcoming Reports,Europe,,Latvia,322,QWERTY,images/industries/1.png,Published Market Research,Spectrasensors Inc.
name-130,description-130,"16 September, 2019",99Strategy,828,Automotive,Published Reports,North America,,Lebanon,624,UIOPAS,images/industries/1.png,Planned Market Research,The Honest Company Inc
name-131,description-131,"5 September, 2009",9Dimen Research,774,Automotive,Upcoming Reports,Africa,,Lesotho,497,DFGHJK,images/industries/1.png,Published Market Research,Tadbik Ltd
name-132,description-132,"11 November, 2011",Adroit Healthcare Services,81,Automotive,Published Reports,Asia,,Liberia,259,LZXCVB,images/industries/1.png,Planned Market Research,Primpack SAE
name-133,description-133,"29 November, 2017",Azoth Analytics,617,Automotive,Upcoming Reports,Australia,,Libyan Arab Jamahiriya,356,NMQWER,images/industries/1.png,Published Market Research,Clinique Laboratories llc
name-134,description-134,2 December 2019,BCC Research,103,Automotive,Published Reports,Europe,,Liechtenstein,678,TYUIOP,images/industries/1.png,Planned Market Research,Spectrasensors Inc.
name-135,description-135,19 December 2009,BIS Report,540,Automotive,Upcoming Reports,North America,,Lithuania,546,ASDFGH,images/industries/1.png,Published Market Research,The Honest Company Inc
name-136,description-136,"3 January, 2018",Bizwit Research & Consulting LLP,643,Automotive,Published Reports,Africa,,Luxembourg,452,JKLZXC,images/industries/1.png,Planned Market Research,Tadbik Ltd
name-137,description-137,"6 January, 2020",Black Swan Analysis,498,Automotive,Upcoming Reports,Asia,,Macao,541,QWERTY,images/industries/1.png,Published Market Research,Primpack SAE
name-138,description-138,"6 Feburary, 2020",BlueWeave Consulting & Resarch Pvt Ltd,962,Automotive,Published Reports,Australia,,North Macedonia,905,UIOPAS,images/industries/1.png,Planned Market Research,Clinique Laboratories llc
name-139,description-139,"7 March, 2019",Chlue Research,955,Automotive,Upcoming Reports,Europe,,Madagascar,202,DFGHJK,images/industries/1.png,Published Market Research,Spectrasensors Inc.
name-140,description-140,"9 March, 2017",Current Partnering,15,Automotive,Published Reports,North America,,Malawi,219,LZXCVB,images/industries/1.png,Planned Market Research,The Honest Company Inc
name-141,description-141,"31 March, 2019",DataM Intelligence,645,Automotive,Upcoming Reports,Africa,,Malaysia,116,NMQWER,images/industries/1.png,Published Market Research,Tadbik Ltd
name-142,description-142,"18 June, 2019",DataMarketResearch,304,Automotive,Published Reports,Asia,,Maldives,638,TYUIOP,images/industries/1.png,Planned Market Research,Primpack SAE
name-143,description-143,"13 July, 2018",DelveInsight,580,Automotive,Upcoming Reports,Australia,,Mali,828,ASDFGH,images/industries/1.png,Published Market Research,Clinique Laboratories llc
name-144,description-144,"22 August, 2017",Detailed Analysis Research,203,Automotive,Published Reports,Europe,,Malta,609,JKLZXC,images/industries/1.png,Planned Market Research,Spectrasensors Inc.
name-145,description-145,"16 September, 2019",99-Reports ,479,Automotive,Upcoming Reports,North America,,Marshall Islands,466,QWERTY,images/industries/1.png,Published Market Research,The Honest Company Inc
name-146,description-146,"5 September, 2009",99Strategy,547,Automotive,Published Reports,Africa,,Martinique,566,UIOPAS,images/industries/1.png,Planned Market Research,Tadbik Ltd
name-147,description-147,"11 November, 2011",9Dimen Research,856,Automotive,Upcoming Reports,Asia,,Mauritania,264,DFGHJK,images/industries/1.png,Published Market Research,Primpack SAE
name-148,description-148,"29 November, 2017",Adroit Healthcare Services,104,Automotive,Published Reports,Australia,,Mauritius,505,LZXCVB,images/industries/1.png,Planned Market Research,Clinique Laboratories llc
name-149,description-149,2 December 2019,Azoth Analytics,218,Automotive,Upcoming Reports,Europe,,Mayotte,936,NMQWER,images/industries/1.png,Published Market Research,Spectrasensors Inc.
name-150,description-150,19 December 2009,BCC Research,18,Automotive,Published Reports,North America,,Mexico,260,TYUIOP,images/industries/1.png,Planned Market Research,The Honest Company Inc
name-151,description-151,"3 January, 2018",BIS Report,849,Automotive,Upcoming Reports,Africa,,"Micronesia, Federated States of",609,ASDFGH,images/industries/1.png,Published Market Research,Tadbik Ltd
name-152,description-152,"6 January, 2020",Bizwit Research & Consulting LLP,970,Automotive,Published Reports,Asia,,Moldova,580,JKLZXC,images/industries/1.png,Planned Market Research,Primpack SAE
name-153,description-153,"6 Feburary, 2020",Black Swan Analysis,421,Automotive,Upcoming Reports,Australia,,Monaco,729,QWERTY,images/industries/1.png,Published Market Research,Clinique Laboratories llc
name-154,description-154,"7 March, 2019",BlueWeave Consulting & Resarch Pvt Ltd,179,Automotive,Published Reports,Europe,,Mongolia,227,UIOPAS,images/industries/1.png,Planned Market Research,Spectrasensors Inc.
name-155,description-155,"9 March, 2017",Chlue Research,905,Automotive,Upcoming Reports,North America,,Montserrat,763,DFGHJK,images/industries/1.png,Published Market Research,The Honest Company Inc
name-156,description-156,"31 March, 2019",Current Partnering,760,Automotive,Published Reports,Africa,,Montenegro,471,LZXCVB,images/industries/1.png,Planned Market Research,Tadbik Ltd
name-157,description-157,"18 June, 2019",DataM Intelligence,820,Automotive,Upcoming Reports,Asia,,Morocco,931,NMQWER,images/industries/1.png,Published Market Research,Primpack SAE
name-158,description-158,"13 July, 2018",DataMarketResearch,913,Automotive,Published Reports,Australia,,Mozambique,913,TYUIOP,images/industries/1.png,Planned Market Research,Clinique Laboratories llc
name-159,description-159,"22 August, 2017",DelveInsight,139,Automotive,Upcoming Reports,Europe,,Myanmar,310,ASDFGH,images/industries/1.png,Published Market Research,Spectrasensors Inc.
name-160,description-160,"16 September, 2019",Detailed Analysis Research,693,Automotive,Published Reports,North America,,Namibia,748,JKLZXC,images/industries/1.png,Planned Market Research,The Honest Company Inc
name-161,description-161,"5 September, 2009",99-Reports ,342,Automotive,Upcoming Reports,Africa,,Nauru,892,QWERTY,images/industries/1.png,Published Market Research,Tadbik Ltd
name-162,description-162,"11 November, 2011",99Strategy,513,Automotive,Published Reports,Asia,,Nepal,380,UIOPAS,images/industries/1.png,Planned Market Research,Primpack SAE
name-163,description-163,"29 November, 2017",9Dimen Research,699,Automotive,Upcoming Reports,Australia,,Netherlands,226,DFGHJK,images/industries/1.png,Published Market Research,Clinique Laboratories llc
name-164,description-164,2 December 2019,Adroit Healthcare Services,89,Automotive,Published Reports,Europe,,Netherlands Antilles,605,LZXCVB,images/industries/1.png,Planned Market Research,Spectrasensors Inc.
name-165,description-165,19 December 2009,Azoth Analytics,642,Automotive,Upcoming Reports,North America,,New Caledonia,189,NMQWER,images/industries/1.png,Published Market Research,The Honest Company Inc
name-166,description-166,"3 January, 2018",BCC Research,223,Automotive,Published Reports,Africa,,New Zealand,581,TYUIOP,images/industries/1.png,Planned Market Research,Tadbik Ltd
name-167,description-167,"6 January, 2020",BIS Report,850,Automotive,Upcoming Reports,Asia,,Nicaragua,732,ASDFGH,images/industries/1.png,Published Market Research,Primpack SAE
name-168,description-168,"6 Feburary, 2020",Bizwit Research & Consulting LLP,219,Automotive,Published Reports,Australia,,Niger,520,JKLZXC,images/industries/1.png,Planned Market Research,Clinique Laboratories llc
name-169,description-169,"7 March, 2019",Black Swan Analysis,47,Automotive,Upcoming Reports,Europe,,Nigeria,532,QWERTY,images/industries/1.png,Published Market Research,Spectrasensors Inc.
name-170,description-170,"9 March, 2017",BlueWeave Consulting & Resarch Pvt Ltd,690,Automotive,Published Reports,North America,,Niue,484,UIOPAS,images/industries/1.png,Planned Market Research,The Honest Company Inc
name-171,description-171,"31 March, 2019",Chlue Research,854,Automotive,Upcoming Reports,Africa,,Norfolk Island,631,DFGHJK,images/industries/1.png,Published Market Research,Tadbik Ltd
name-172,description-172,"18 June, 2019",Current Partnering,179,Automotive,Published Reports,Asia,,North Korea,831,LZXCVB,images/industries/1.png,Planned Market Research,Primpack SAE
name-173,description-173,"13 July, 2018",DataM Intelligence,966,Automotive,Upcoming Reports,Australia,,Northern Ireland,105,NMQWER,images/industries/1.png,Published Market Research,Clinique Laboratories llc
name-174,description-174,"22 August, 2017",DataMarketResearch,77,Automotive,Published Reports,Europe,,Northern Mariana Islands,883,TYUIOP,images/industries/1.png,Planned Market Research,Spectrasensors Inc.
name-175,description-175,"16 September, 2019",DelveInsight,924,Automotive,Upcoming Reports,North America,,Norway,244,ASDFGH,images/industries/1.png,Published Market Research,The Honest Company Inc
name-176,description-176,"5 September, 2009",Detailed Analysis Research,91,Automotive,Published Reports,Africa,,Oman,578,JKLZXC,images/industries/1.png,Planned Market Research,Tadbik Ltd
name-177,description-177,"11 November, 2011",99-Reports ,814,Automotive,Upcoming Reports,Asia,,Pakistan,179,QWERTY,images/industries/1.png,Published Market Research,Primpack SAE
name-178,description-178,"29 November, 2017",99Strategy,571,Automotive,Published Reports,Australia,,Palau,127,UIOPAS,images/industries/1.png,Planned Market Research,Clinique Laboratories llc
name-179,description-179,2 December 2019,9Dimen Research,623,Automotive,Upcoming Reports,Europe,,Palestine,610,DFGHJK,images/industries/1.png,Published Market Research,Spectrasensors Inc.
name-180,description-180,19 December 2009,Adroit Healthcare Services,662,Automotive,Published Reports,North America,,Panama,274,LZXCVB,images/industries/1.png,Planned Market Research,The Honest Company Inc
name-181,description-181,"3 January, 2018",Azoth Analytics,438,Automotive,Upcoming Reports,Africa,,Papua New Guinea,549,NMQWER,images/industries/1.png,Published Market Research,Tadbik Ltd
name-182,description-182,"6 January, 2020",BCC Research,496,Automotive,Published Reports,Asia,,Paraguay,790,TYUIOP,images/industries/1.png,Planned Market Research,Primpack SAE
name-183,description-183,"6 Feburary, 2020",BIS Report,135,Automotive,Upcoming Reports,Australia,,Peru,259,ASDFGH,images/industries/1.png,Published Market Research,Clinique Laboratories llc
name-184,description-184,"7 March, 2019",Bizwit Research & Consulting LLP,232,Automotive,Published Reports,Europe,,Philippines,966,JKLZXC,images/industries/1.png,Planned Market Research,Spectrasensors Inc.
name-185,description-185,"9 March, 2017",Black Swan Analysis,220,Automotive,Upcoming Reports,North America,,Pitcairn,399,QWERTY,images/industries/1.png,Published Market Research,The Honest Company Inc
name-186,description-186,"31 March, 2019",BlueWeave Consulting & Resarch Pvt Ltd,226,Automotive,Published Reports,Africa,,Poland,415,UIOPAS,images/industries/1.png,Planned Market Research,Tadbik Ltd
name-187,description-187,"18 June, 2019",Chlue Research,269,Automotive,Upcoming Reports,Asia,,Portugal,411,DFGHJK,images/industries/1.png,Published Market Research,Primpack SAE
name-188,description-188,"13 July, 2018",Current Partnering,331,Automotive,Published Reports,Australia,,Puerto Rico,785,LZXCVB,images/industries/1.png,Planned Market Research,Clinique Laboratories llc
name-189,description-189,"22 August, 2017",DataM Intelligence,166,Automotive,Upcoming Reports,Europe,,Qatar,470,NMQWER,images/industries/1.png,Published Market Research,Spectrasensors Inc.
name-190,description-190,"16 September, 2019",DataMarketResearch,355,Automotive,Published Reports,North America,,Reunion,562,TYUIOP,images/industries/1.png,Planned Market Research,The Honest Company Inc
name-191,description-191,"5 September, 2009",DelveInsight,108,Automotive,Upcoming Reports,Africa,,Romania,297,ASDFGH,images/industries/1.png,Published Market Research,Tadbik Ltd
name-192,description-192,"11 November, 2011",Detailed Analysis Research,843,Automotive,Published Reports,Asia,,Russian Federation,989,JKLZXC,images/industries/1.png,Planned Market Research,Primpack SAE
name-193,description-193,"29 November, 2017",99-Reports ,167,Automotive,Upcoming Reports,Australia,,Rwanda,181,QWERTY,images/industries/1.png,Published Market Research,Clinique Laboratories llc
name-194,description-194,2 December 2019,99Strategy,332,Automotive,Published Reports,Europe,,Saint Helena,403,UIOPAS,images/industries/1.png,Planned Market Research,Spectrasensors Inc.
name-195,description-195,19 December 2009,9Dimen Research,574,Automotive,Upcoming Reports,North America,,Saint Kitts and Nevis,923,DFGHJK,images/industries/1.png,Published Market Research,The Honest Company Inc
name-196,description-196,"3 January, 2018",Adroit Healthcare Services,122,Automotive,Published Reports,Africa,,Saint Lucia,511,LZXCVB,images/industries/1.png,Planned Market Research,Tadbik Ltd
name-197,description-197,"6 January, 2020",Azoth Analytics,186,Automotive,Upcoming Reports,Asia,,Saint Pierre and Miquelon,509,NMQWER,images/industries/1.png,Published Market Research,Primpack SAE
name-198,description-198,"6 Feburary, 2020",BCC Research,156,Automotive,Published Reports,Australia,,Saint Vincent and the Grenadines,904,TYUIOP,images/industries/1.png,Planned Market Research,Clinique Laboratories llc
name-199,description-199,"7 March, 2019",BIS Report,495,Automotive,Upcoming Reports,Europe,,Samoa,217,ASDFGH,images/industries/1.png,Published Market Research,Spectrasensors Inc.
name-200,description-200,"9 March, 2017",Bizwit Research & Consulting LLP,875,Automotive,Published Reports,North America,,San Marino,879,JKLZXC,images/industries/1.png,Planned Market Research,The Honest Company Inc
name-201,description-201,"31 March, 2019",Black Swan Analysis,867,Automotive,Upcoming Reports,Africa,,Sao Tome and Principe,556,QWERTY,images/industries/1.png,Published Market Research,Tadbik Ltd
name-202,description-202,"18 June, 2019",BlueWeave Consulting & Resarch Pvt Ltd,401,Automotive,Published Reports,Asia,,Saudi Arabia,680,UIOPAS,images/industries/1.png,Planned Market Research,Primpack SAE
name-203,description-203,"13 July, 2018",Chlue Research,57,Automotive,Upcoming Reports,Australia,,Scotland,947,DFGHJK,images/industries/1.png,Published Market Research,Clinique Laboratories llc
name-204,description-204,"22 August, 2017",Current Partnering,953,Automotive,Published Reports,Europe,,Senegal,971,LZXCVB,images/industries/1.png,Planned Market Research,Spectrasensors Inc.
name-205,description-205,"16 September, 2019",DataM Intelligence,806,Automotive,Upcoming Reports,North America,,Serbia,147,NMQWER,images/industries/1.png,Published Market Research,The Honest Company Inc
name-206,description-206,"5 September, 2009",DataMarketResearch,703,Automotive,Published Reports,Africa,,Seychelles,570,TYUIOP,images/industries/1.png,Planned Market Research,Tadbik Ltd
name-207,description-207,"11 November, 2011",DelveInsight,892,Automotive,Upcoming Reports,Asia,,Sierra Leone,384,ASDFGH,images/industries/1.png,Published Market Research,Primpack SAE
name-208,description-208,"29 November, 2017",Detailed Analysis Research,629,Automotive,Published Reports,Australia,,Singapore,831,JKLZXC,images/industries/1.png,Planned Market Research,Clinique Laboratories llc
name-209,description-209,2 December 2019,99-Reports ,350,Automotive,Upcoming Reports,Europe,,Slovakia,670,QWERTY,images/industries/1.png,Published Market Research,Spectrasensors Inc.
name-210,description-210,19 December 2009,99Strategy,944,Automotive,Published Reports,North America,,Slovenia,369,UIOPAS,images/industries/1.png,Planned Market Research,The Honest Company Inc
name-211,description-211,"3 January, 2018",9Dimen Research,603,Automotive,Upcoming Reports,Africa,,Solomon Islands,708,DFGHJK,images/industries/1.png,Published Market Research,Tadbik Ltd
name-212,description-212,"6 January, 2020",Adroit Healthcare Services,142,Automotive,Published Reports,Asia,,Somalia,863,LZXCVB,images/industries/1.png,Planned Market Research,Primpack SAE
name-213,description-213,"6 Feburary, 2020",Azoth Analytics,789,Automotive,Upcoming Reports,Australia,,South Africa,149,NMQWER,images/industries/1.png,Published Market Research,Clinique Laboratories llc
name-214,description-214,"7 March, 2019",BCC Research,936,Automotive,Published Reports,Europe,,South Georgia and the South Sandwich Islands,400,TYUIOP,images/industries/1.png,Planned Market Research,Spectrasensors Inc.
name-215,description-215,"9 March, 2017",BIS Report,544,Automotive,Upcoming Reports,North America,,South Korea,669,ASDFGH,images/industries/1.png,Published Market Research,The Honest Company Inc
name-216,description-216,"31 March, 2019",Bizwit Research & Consulting LLP,408,Automotive,Published Reports,Africa,,South Sudan,508,JKLZXC,images/industries/1.png,Planned Market Research,Tadbik Ltd
name-217,description-217,"18 June, 2019",Black Swan Analysis,509,Automotive,Upcoming Reports,Asia,,Spain,782,QWERTY,images/industries/1.png,Published Market Research,Primpack SAE
name-218,description-218,"13 July, 2018",BlueWeave Consulting & Resarch Pvt Ltd,72,Automotive,Published Reports,Australia,,SriLanka,115,UIOPAS,images/industries/1.png,Planned Market Research,Clinique Laboratories llc
name-219,description-219,"22 August, 2017",Chlue Research,775,Automotive,Upcoming Reports,Europe,,Sudan,909,DFGHJK,images/industries/1.png,Published Market Research,Spectrasensors Inc.
name-220,description-220,"16 September, 2019",Current Partnering,237,Automotive,Published Reports,North America,,Suriname,505,LZXCVB,images/industries/1.png,Planned Market Research,The Honest Company Inc
name-221,description-221,"5 September, 2009",DataM Intelligence,411,Automotive,Upcoming Reports,Africa,,Svalbard and Jan Mayen,561,NMQWER,images/industries/1.png,Published Market Research,Tadbik Ltd
name-222,description-222,"11 November, 2011",DataMarketResearch,401,Automotive,Published Reports,Asia,,Swaziland,359,TYUIOP,images/industries/1.png,Planned Market Research,Primpack SAE
name-223,description-223,"29 November, 2017",DelveInsight,947,Automotive,Upcoming Reports,Australia,,Sweden,323,ASDFGH,images/industries/1.png,Published Market Research,Clinique Laboratories llc
name-224,description-224,2 December 2019,Detailed Analysis Research,252,Automotive,Published Reports,Europe,,Switzerland,501,JKLZXC,images/industries/1.png,Planned Market Research,Spectrasensors Inc.
name-225,description-225,19 December 2009,99-Reports ,96,Automotive,Upcoming Reports,North America,,Syria,761,QWERTY,images/industries/1.png,Published Market Research,The Honest Company Inc
name-226,description-226,"3 January, 2018",99Strategy,56,Automotive,Published Reports,Africa,,Tajikistan,454,UIOPAS,images/industries/1.png,Planned Market Research,Tadbik Ltd
name-227,description-227,"6 January, 2020",9Dimen Research,891,Automotive,Upcoming Reports,Asia,,Tanzania,383,DFGHJK,images/industries/1.png,Published Market Research,Primpack SAE
name-228,description-228,"6 Feburary, 2020",Adroit Healthcare Services,747,Automotive,Published Reports,Australia,,Thailand,519,LZXCVB,images/industries/1.png,Planned Market Research,Clinique Laboratories llc
name-229,description-229,"7 March, 2019",Azoth Analytics,874,Automotive,Upcoming Reports,Europe,,Timor-Leste,958,NMQWER,images/industries/1.png,Published Market Research,Spectrasensors Inc.
name-230,description-230,"9 March, 2017",BCC Research,204,Automotive,Published Reports,North America,,Togo,695,TYUIOP,images/industries/1.png,Planned Market Research,The Honest Company Inc
name-231,description-231,"31 March, 2019",BIS Report,908,Automotive,Upcoming Reports,Africa,,Tokelau,975,ASDFGH,images/industries/1.png,Published Market Research,Tadbik Ltd
name-232,description-232,"18 June, 2019",Bizwit Research & Consulting LLP,135,Automotive,Published Reports,Asia,,Tonga,250,JKLZXC,images/industries/1.png,Planned Market Research,Primpack SAE
name-233,description-233,"13 July, 2018",Black Swan Analysis,942,Automotive,Upcoming Reports,Australia,,Trinidad and Tobago,899,QWERTY,images/industries/1.png,Published Market Research,Clinique Laboratories llc
name-234,description-234,"22 August, 2017",BlueWeave Consulting & Resarch Pvt Ltd,953,Automotive,Published Reports,Europe,,Tunisia,497,UIOPAS,images/industries/1.png,Planned Market Research,Spectrasensors Inc.
name-235,description-235,"16 September, 2019",Chlue Research,624,Automotive,Upcoming Reports,North America,,Turkey,103,DFGHJK,images/industries/1.png,Published Market Research,The Honest Company Inc
name-236,description-236,"5 September, 2009",Current Partnering,998,Automotive,Published Reports,Africa,,Turkmenistan,160,LZXCVB,images/industries/1.png,Planned Market Research,Tadbik Ltd
name-237,description-237,"11 November, 2011",DataM Intelligence,677,Automotive,Upcoming Reports,Asia,,Turks and Caicos Islands,879,NMQWER,images/industries/1.png,Published Market Research,Primpack SAE
name-238,description-238,"29 November, 2017",DataMarketResearch,506,Automotive,Published Reports,Australia,,Tuvalu,560,TYUIOP,images/industries/1.png,Planned Market Research,Clinique Laboratories llc
name-239,description-239,2 December 2019,DelveInsight,596,Automotive,Upcoming Reports,Europe,,Uganda,817,ASDFGH,images/industries/1.png,Published Market Research,Spectrasensors Inc.
name-240,description-240,19 December 2009,Detailed Analysis Research,208,Automotive,Published Reports,North America,,Ukraine,695,JKLZXC,images/industries/1.png,Planned Market Research,The Honest Company Inc
name-241,description-241,"3 January, 2018",99-Reports ,404,Automotive,Upcoming Reports,Africa,,United Arab Emirates,372,QWERTY,images/industries/1.png,Published Market Research,Tadbik Ltd
name-242,description-242,"6 January, 2020",99Strategy,296,Automotive,Published Reports,Asia,,United Kingdom,278,UIOPAS,images/industries/1.png,Planned Market Research,Primpack SAE
name-243,description-243,"6 Feburary, 2020",9Dimen Research,816,Automotive,Upcoming Reports,Australia,,United States,831,DFGHJK,images/industries/1.png,Published Market Research,Clinique Laboratories llc
name-244,description-244,"7 March, 2019",Adroit Healthcare Services,947,Automotive,Published Reports,Europe,,United States Minor Outlying Islands,991,LZXCVB,images/industries/1.png,Planned Market Research,Spectrasensors Inc.
name-245,description-245,"9 March, 2017",Azoth Analytics,728,Automotive,Upcoming Reports,North America,,Uruguay,384,NMQWER,images/industries/1.png,Published Market Research,The Honest Company Inc
name-246,description-246,"31 March, 2019",BCC Research,777,Automotive,Published Reports,Africa,,Uzbekistan,253,TYUIOP,images/industries/1.png,Planned Market Research,Tadbik Ltd
name-247,description-247,"18 June, 2019",BIS Report,648,Automotive,Upcoming Reports,Asia,,Vanuatu,709,ASDFGH,images/industries/1.png,Published Market Research,Primpack SAE
name-248,description-248,"13 July, 2018",Bizwit Research & Consulting LLP,942,Automotive,Published Reports,Australia,,Venezuela,299,JKLZXC,images/industries/1.png,Planned Market Research,Clinique Laboratories llc
name-249,description-249,"22 August, 2017",Black Swan Analysis,750,Automotive,Upcoming Reports,Europe,,Vietnam,612,QWERTY,images/industries/1.png,Published Market Research,Spectrasensors Inc.
name-250,description-250,"16 September, 2019",BlueWeave Consulting & Resarch Pvt Ltd,238,Automotive,Published Reports,North America,,"Virgin Islands, British",438,UIOPAS,images/industries/1.png,Planned Market Research,The Honest Company Inc
name-251,description-251,"5 September, 2009",Chlue Research,668,Automotive,Upcoming Reports,Africa,,"Virgin Islands, U.S.",844,DFGHJK,images/industries/1.png,Published Market Research,Tadbik Ltd
name-252,description-252,"11 November, 2011",Current Partnering,926,Automotive,Published Reports,Asia,,Wales,145,LZXCVB,images/industries/1.png,Planned Market Research,Primpack SAE
name-253,description-253,"29 November, 2017",DataM Intelligence,488,Automotive,Upcoming Reports,Australia,,Wallis and Futuna,906,NMQWER,images/industries/1.png,Published Market Research,Clinique Laboratories llc
name-254,description-254,2 December 2019,DataMarketResearch,366,Automotive,Published Reports,Europe,,Western Sahara,873,TYUIOP,images/industries/1.png,Planned Market Research,Spectrasensors Inc.
name-255,description-255,19 December 2009,DelveInsight,493,Automotive,Upcoming Reports,North America,,Yemen,804,ASDFGH,images/industries/1.png,Published Market Research,The Honest Company Inc
name-256,description-256,"3 January, 2018",Detailed Analysis Research,296,Automotive,Published Reports,Africa,,Yugoslavia,367,JKLZXC,images/industries/1.png,Planned Market Research,Tadbik Ltd
name-257,description-257,"6 January, 2020",BlueWeave Consulting & Resarch Pvt Ltd,77,Automotive,Upcoming Reports,Asia,,Zambia,365,VBFJSNA,images/industries/1.png,Published Market Research,Primpack SAE
name-258,description-258,"6 Feburary, 2020",Chlue Research,24,Automotive,Published Reports,Australia,,Zimbabwe,349,DNKSDNLS,images/industries/1.png,Planned Market Research,Clinique Laboratories llc