[{
		"name": "name-1",
		"description": "description-1",
		"date": "3 January, 2018",
		"publisher": "99-Reports ",
		"price": 490,
		"category": "Aerospace & Defense",
		"reportType": "Upcoming Reports",
		"continent": "Africa",
		"region": "Asia Pacific",
		"country": "Afghanistan",
		"noOfPages": 291,
		"code": "QWERTY",
		"src": "images/industries/1.png",
		"publishedType": "Published Market Research",
		"companiesCovered": "Tadbik Ltd"
	},{
		"name": "name-2",
		"description": "description-2",
		"date": "6 January, 2020",
		"publisher": "99Strategy",
		"price": 131,
		"category": "Aerospace & Defense",
		"reportType": "Published Reports",
		"continent": "Asia",
		"region": "Bric",
		"country": "Albania",
		"noOfPages": 790,
		"code": "UIOPAS",
		"src": "images/industries/1.png",
		"publishedType": "Planned Market Research",
		"companiesCovered": "Primpack SAE"
	},{
		"name": "name-3",
		"description": "description-3",
		"date": "6 Feburary, 2020",
		"publisher": "9Dimen Research",
		"price": 58,
		"category": "Aerospace & Defense",
		"reportType": "Upcoming Reports",
		"continent": "Australia",
		"region": "Caribbean",
		"country": "Algeria",
		"noOfPages": 516,
		"code": "DFGHJK",
		"src": "images/industries/1.png",
		"publishedType": "Published Market Research",
		"companiesCovered": "Clinique Laboratories llc"
	},{
		"name": "name-4",
		"description": "description-4",
		"date": "7 March, 2019",
		"publisher": "Adroit Healthcare Services",
		"price": 808,
		"category": "Aerospace & Defense",
		"reportType": "Published Reports",
		"continent": "Europe",
		"region": "Central Asia",
		"country": "American Samoa",
		"noOfPages": 302,
		"code": "LZXCVB",
		"src": "images/industries/1.png",
		"publishedType": "Planned Market Research",
		"companiesCovered": "Spectrasensors Inc."
	},{
		"name": "name-5",
		"description": "description-5",
		"date": "9 March, 2017",
		"publisher": "Azoth Analytics",
		"price": 788,
		"category": "Aerospace & Defense",
		"reportType": "Upcoming Reports",
		"continent": "North America",
		"region": "Central America",
		"country": "Andorra",
		"noOfPages": 753,
		"code": "NMQWER",
		"src": "images/industries/1.png",
		"publishedType": "Published Market Research",
		"companiesCovered": "The Honest Company Inc"
	},{
		"name": "name-6",
		"description": "description-6",
		"date": "31 March, 2019",
		"publisher": "BCC Research",
		"price": 217,
		"category": "Basic Materials",
		"reportType": "Published Reports",
		"continent": "Africa",
		"region": "CIS",
		"country": "Angola",
		"noOfPages": 755,
		"code": "TYUIOP",
		"src": "images/industries/1.png",
		"publishedType": "Planned Market Research",
		"companiesCovered": "Tadbik Ltd"
	},{
		"name": "name-7",
		"description": "description-7",
		"date": "18 June, 2019",
		"publisher": "BIS Report",
		"price": 588,
		"category": "Basic Materials",
		"reportType": "Upcoming Reports",
		"continent": "Asia",
		"region": "East Europe",
		"country": "Anguilla",
		"noOfPages": 371,
		"code": "ASDFGH",
		"src": "images/industries/1.png",
		"publishedType": "Published Market Research",
		"companiesCovered": "Primpack SAE"
	},{
		"name": "name-8",
		"description": "description-8",
		"date": "13 July, 2018",
		"publisher": "Bizwit Research & Consulting LLP",
		"price": 558,
		"category": "Basic Materials",
		"reportType": "Published Reports",
		"continent": "Australia",
		"region": "European Union",
		"country": "Antarctica",
		"noOfPages": 521,
		"code": "JKLZXC",
		"src": "images/industries/1.png",
		"publishedType": "Planned Market Research",
		"companiesCovered": "Clinique Laboratories llc"
	},{
		"name": "name-9",
		"description": "description-9",
		"date": "22 August, 2017",
		"publisher": "Black Swan Analysis",
		"price": 915,
		"category": "Basic Materials",
		"reportType": "Upcoming Reports",
		"continent": "Europe",
		"region": "G20",
		"country": "Antigua and Barbuda",
		"noOfPages": 751,
		"code": "QWERTY",
		"src": "images/industries/1.png",
		"publishedType": "Published Market Research",
		"companiesCovered": "Spectrasensors Inc."
	},{
		"name": "name-10",
		"description": "description-10",
		"date": "16 September, 2019",
		"publisher": "BlueWeave Consulting & Resarch Pvt Ltd",
		"price": 276,
		"category": "Basic Materials",
		"reportType": "Published Reports",
		"continent": "North America",
		"region": "G8",
		"country": "Argentina",
		"noOfPages": 100,
		"code": "UIOPAS",
		"src": "images/industries/1.png",
		"publishedType": "Planned Market Research",
		"companiesCovered": "The Honest Company Inc"
	},{
		"name": "name-11",
		"description": "description-11",
		"date": "5 September, 2009",
		"publisher": "Chlue Research",
		"price": 858,
		"category": "Agri & Food",
		"reportType": "Upcoming Reports",
		"continent": "Africa",
		"region": "Latin America",
		"country": "Armenia",
		"noOfPages": 367,
		"code": "DFGHJK",
		"src": "images/industries/1.png",
		"publishedType": "Published Market Research",
		"companiesCovered": "Tadbik Ltd"
	},{
		"name": "name-12",
		"description": "description-12",
		"date": "11 November, 2011",
		"publisher": "Current Partnering",
		"price": 442,
		"category": "Agri & Food",
		"reportType": "Published Reports",
		"continent": "Asia",
		"region": "Micronesia",
		"country": "Aruba",
		"noOfPages": 946,
		"code": "LZXCVB",
		"src": "images/industries/1.png",
		"publishedType": "Planned Market Research",
		"companiesCovered": "Primpack SAE"
	},{
		"name": "name-13",
		"description": "description-13",
		"date": "29 November, 2017",
		"publisher": "DataM Intelligence",
		"price": 47,
		"category": "Agri & Food",
		"reportType": "Upcoming Reports",
		"continent": "Australia",
		"region": "Middle Africa",
		"country": "Australia",
		"noOfPages": 933,
		"code": "NMQWER",
		"src": "images/industries/1.png",
		"publishedType": "Published Market Research",
		"companiesCovered": "Clinique Laboratories llc"
	},{
		"name": "name-14",
		"description": "description-14",
		"date": "2 December 2019",
		"publisher": "DataMarketResearch",
		"price": 151,
		"category": "Agri & Food",
		"reportType": "Published Reports",
		"continent": "Europe",
		"region": "Middle East",
		"country": "Austria",
		"noOfPages": 706,
		"code": "TYUIOP",
		"src": "images/industries/1.png",
		"publishedType": "Planned Market Research",
		"companiesCovered": "Spectrasensors Inc."
	},{
		"name": "name-15",
		"description": "description-15",
		"date": "19 December 2009",
		"publisher": "DelveInsight",
		"price": 678,
		"category": "Agri & Food",
		"reportType": "Upcoming Reports",
		"continent": "North America",
		"region": "NAFTA",
		"country": "Azerbaijan",
		"noOfPages": 912,
		"code": "ASDFGH",
		"src": "images/industries/1.png",
		"publishedType": "Published Market Research",
		"companiesCovered": "The Honest Company Inc"
	},{
		"name": "name-16",
		"description": "description-16",
		"date": "3 January, 2018",
		"publisher": "Detailed Analysis Research",
		"price": 48,
		"category": "Company Reports",
		"reportType": "Published Reports",
		"continent": "Africa",
		"region": "Nothern Africa",
		"country": "Bahamas",
		"noOfPages": 520,
		"code": "JKLZXC",
		"src": "images/industries/1.png",
		"publishedType": "Planned Market Research",
		"companiesCovered": "Tadbik Ltd"
	},{
		"name": "name-17",
		"description": "description-17",
		"date": "6 January, 2020",
		"publisher": "99-Reports ",
		"price": 895,
		"category": "Company Reports",
		"reportType": "Upcoming Reports",
		"continent": "Asia",
		"region": "Northern Europe",
		"country": "Bahrain",
		"noOfPages": 976,
		"code": "QWERTY",
		"src": "images/industries/1.png",
		"publishedType": "Published Market Research",
		"companiesCovered": "Primpack SAE"
	},{
		"name": "name-18",
		"description": "description-18",
		"date": "6 Feburary, 2020",
		"publisher": "99Strategy",
		"price": 335,
		"category": "Company Reports",
		"reportType": "Published Reports",
		"continent": "Australia",
		"region": "Ocenia",
		"country": "Bangladesh",
		"noOfPages": 176,
		"code": "UIOPAS",
		"src": "images/industries/1.png",
		"publishedType": "Planned Market Research",
		"companiesCovered": "Clinique Laboratories llc"
	},{
		"name": "name-19",
		"description": "description-19",
		"date": "7 March, 2019",
		"publisher": "9Dimen Research",
		"price": 102,
		"category": "Company Reports",
		"reportType": "Upcoming Reports",
		"continent": "Europe",
		"region": "Scandinavia",
		"country": "Barbados",
		"noOfPages": 290,
		"code": "DFGHJK",
		"src": "images/industries/1.png",
		"publishedType": "Published Market Research",
		"companiesCovered": "Spectrasensors Inc."
	},{
		"name": "name-20",
		"description": "description-20",
		"date": "9 March, 2017",
		"publisher": "Adroit Healthcare Services",
		"price": 755,
		"category": "Company Reports",
		"reportType": "Published Reports",
		"continent": "North America",
		"region": "South Asia",
		"country": "Belarus",
		"noOfPages": 393,
		"code": "LZXCVB",
		"src": "images/industries/1.png",
		"publishedType": "Planned Market Research",
		"companiesCovered": "The Honest Company Inc"
	},{
		"name": "name-21",
		"description": "description-21",
		"date": "31 March, 2019",
		"publisher": "Azoth Analytics",
		"price": 715,
		"category": "Automotive",
		"reportType": "Upcoming Reports",
		"continent": "Africa",
		"region": "Southern Africa",
		"country": "Belgium",
		"noOfPages": 772,
		"code": "NMQWER",
		"src": "images/industries/1.png",
		"publishedType": "Published Market Research",
		"companiesCovered": "Tadbik Ltd"
	},{
		"name": "name-22",
		"description": "description-22",
		"date": "18 June, 2019",
		"publisher": "BCC Research",
		"price": 398,
		"category": "Automotive",
		"reportType": "Published Reports",
		"continent": "Asia",
		"region": "West Africa",
		"country": "Belize",
		"noOfPages": 879,
		"code": "TYUIOP",
		"src": "images/industries/1.png",
		"publishedType": "Planned Market Research",
		"companiesCovered": "Primpack SAE"
	},{
		"name": "name-23",
		"description": "description-23",
		"date": "13 July, 2018",
		"publisher": "BIS Report",
		"price": 27,
		"category": "Automotive",
		"reportType": "Upcoming Reports",
		"continent": "Australia",
		"region": "West Europe",
		"country": "Benin",
		"noOfPages": 256,
		"code": "ASDFGH",
		"src": "images/industries/1.png",
		"publishedType": "Published Market Research",
		"companiesCovered": "Clinique Laboratories llc"
	},{
		"name": "name-24",
		"description": "description-24",
		"date": "22 August, 2017",
		"publisher": "Bizwit Research & Consulting LLP",
		"price": 357,
		"category": "Automotive",
		"reportType": "Published Reports",
		"continent": "Europe",
		"region": "Asia Pacific",
		"country": "Bermuda",
		"noOfPages": 182,
		"code": "JKLZXC",
		"src": "images/industries/1.png",
		"publishedType": "Planned Market Research",
		"companiesCovered": "Spectrasensors Inc."
	},{
		"name": "name-25",
		"description": "description-25",
		"date": "16 September, 2019",
		"publisher": "Black Swan Analysis",
		"price": 880,
		"category": "Automotive",
		"reportType": "Upcoming Reports",
		"continent": "North America",
		"region": "Bric",
		"country": "Bhutan",
		"noOfPages": 646,
		"code": "QWERTY",
		"src": "images/industries/1.png",
		"publishedType": "Published Market Research",
		"companiesCovered": "The Honest Company Inc"
	},{
		"name": "name-26",
		"description": "description-26",
		"date": "5 September, 2009",
		"publisher": "BlueWeave Consulting & Resarch Pvt Ltd",
		"price": 233,
		"category": "Company Reports",
		"reportType": "Published Reports",
		"continent": "Africa",
		"region": "Caribbean",
		"country": "Bolivia",
		"noOfPages": 388,
		"code": "UIOPAS",
		"src": "images/industries/1.png",
		"publishedType": "Planned Market Research",
		"companiesCovered": "Tadbik Ltd"
	},{
		"name": "name-27",
		"description": "description-27",
		"date": "11 November, 2011",
		"publisher": "Chlue Research",
		"price": 24,
		"category": "Company Reports",
		"reportType": "Upcoming Reports",
		"continent": "Asia",
		"region": "Central Asia",
		"country": "Bosnia and Herzegovina",
		"noOfPages": 1000,
		"code": "DFGHJK",
		"src": "images/industries/1.png",
		"publishedType": "Published Market Research",
		"companiesCovered": "Primpack SAE"
	},{
		"name": "name-28",
		"description": "description-28",
		"date": "29 November, 2017",
		"publisher": "Current Partnering",
		"price": 660,
		"category": "Company Reports",
		"reportType": "Published Reports",
		"continent": "Australia",
		"region": "Central America",
		"country": "Botswana",
		"noOfPages": 646,
		"code": "LZXCVB",
		"src": "images/industries/1.png",
		"publishedType": "Planned Market Research",
		"companiesCovered": "Clinique Laboratories llc"
	},{
		"name": "name-29",
		"description": "description-29",
		"date": "2 December 2019",
		"publisher": "DataM Intelligence",
		"price": 567,
		"category": "Company Reports",
		"reportType": "Upcoming Reports",
		"continent": "Europe",
		"region": "CIS",
		"country": "Bouvet Island",
		"noOfPages": 177,
		"code": "NMQWER",
		"src": "images/industries/1.png",
		"publishedType": "Published Market Research",
		"companiesCovered": "Spectrasensors Inc."
	},{
		"name": "name-30",
		"description": "description-30",
		"date": "19 December 2009",
		"publisher": "DataMarketResearch",
		"price": 128,
		"category": "Company Reports",
		"reportType": "Published Reports",
		"continent": "North America",
		"region": "East Europe",
		"country": "Brazil",
		"noOfPages": 363,
		"code": "TYUIOP",
		"src": "images/industries/1.png",
		"publishedType": "Planned Market Research",
		"companiesCovered": "The Honest Company Inc"
	},{
		"name": "name-31",
		"description": "description-31",
		"date": "3 January, 2018",
		"publisher": "DelveInsight",
		"price": 425,
		"category": "Consumer Goods & Retail",
		"reportType": "Upcoming Reports",
		"continent": "Africa",
		"region": "European Union",
		"country": "British Indian Ocean Territory",
		"noOfPages": 318,
		"code": "ASDFGH",
		"src": "images/industries/1.png",
		"publishedType": "Published Market Research",
		"companiesCovered": "Tadbik Ltd"
	},{
		"name": "name-32",
		"description": "description-32",
		"date": "6 January, 2020",
		"publisher": "Detailed Analysis Research",
		"price": 111,
		"category": "Consumer Goods & Retail",
		"reportType": "Published Reports",
		"continent": "Asia",
		"region": "G20",
		"country": "Brunei",
		"noOfPages": 540,
		"code": "JKLZXC",
		"src": "images/industries/1.png",
		"publishedType": "Planned Market Research",
		"companiesCovered": "Primpack SAE"
	},{
		"name": "name-33",
		"description": "description-33",
		"date": "6 Feburary, 2020",
		"publisher": "99-Reports ",
		"price": 434,
		"category": "Consumer Goods & Retail",
		"reportType": "Upcoming Reports",
		"continent": "Australia",
		"region": "G8",
		"country": "Bulgaria",
		"noOfPages": 966,
		"code": "QWERTY",
		"src": "images/industries/1.png",
		"publishedType": "Published Market Research",
		"companiesCovered": "Clinique Laboratories llc"
	},{
		"name": "name-34",
		"description": "description-34",
		"date": "7 March, 2019",
		"publisher": "99Strategy",
		"price": 174,
		"category": "Consumer Goods & Retail",
		"reportType": "Published Reports",
		"continent": "Europe",
		"region": "Latin America",
		"country": "Burkina Faso",
		"noOfPages": 551,
		"code": "UIOPAS",
		"src": "images/industries/1.png",
		"publishedType": "Planned Market Research",
		"companiesCovered": "Spectrasensors Inc."
	},{
		"name": "name-35",
		"description": "description-35",
		"date": "9 March, 2017",
		"publisher": "9Dimen Research",
		"price": 187,
		"category": "Consumer Goods & Retail",
		"reportType": "Upcoming Reports",
		"continent": "North America",
		"region": "Micronesia",
		"country": "Burundi",
		"noOfPages": 558,
		"code": "DFGHJK",
		"src": "images/industries/1.png",
		"publishedType": "Published Market Research",
		"companiesCovered": "The Honest Company Inc"
	},{
		"name": "name-36",
		"description": "description-36",
		"date": "31 March, 2019",
		"publisher": "Adroit Healthcare Services",
		"price": 540,
		"category": "Education",
		"reportType": "Published Reports",
		"continent": "Africa",
		"region": "Middle Africa",
		"country": "Cambodia",
		"noOfPages": 295,
		"code": "LZXCVB",
		"src": "images/industries/1.png",
		"publishedType": "Planned Market Research",
		"companiesCovered": "Tadbik Ltd"
	},{
		"name": "name-37",
		"description": "description-37",
		"date": "18 June, 2019",
		"publisher": "Azoth Analytics",
		"price": 531,
		"category": "Education",
		"reportType": "Upcoming Reports",
		"continent": "Asia",
		"region": "Middle East",
		"country": "Cameroon",
		"noOfPages": 495,
		"code": "NMQWER",
		"src": "images/industries/1.png",
		"publishedType": "Published Market Research",
		"companiesCovered": "Primpack SAE"
	},{
		"name": "name-38",
		"description": "description-38",
		"date": "13 July, 2018",
		"publisher": "BCC Research",
		"price": 401,
		"category": "Education",
		"reportType": "Published Reports",
		"continent": "Australia",
		"region": "NAFTA",
		"country": "Canada",
		"noOfPages": 136,
		"code": "TYUIOP",
		"src": "images/industries/1.png",
		"publishedType": "Planned Market Research",
		"companiesCovered": "Clinique Laboratories llc"
	},{
		"name": "name-39",
		"description": "description-39",
		"date": "22 August, 2017",
		"publisher": "BIS Report",
		"price": 675,
		"category": "Education",
		"reportType": "Upcoming Reports",
		"continent": "Europe",
		"region": "Nothern Africa",
		"country": "Cape Verde",
		"noOfPages": 331,
		"code": "ASDFGH",
		"src": "images/industries/1.png",
		"publishedType": "Published Market Research",
		"companiesCovered": "Spectrasensors Inc."
	},{
		"name": "name-40",
		"description": "description-40",
		"date": "16 September, 2019",
		"publisher": "Bizwit Research & Consulting LLP",
		"price": 1000,
		"category": "Education",
		"reportType": "Published Reports",
		"continent": "North America",
		"region": "Northern Europe",
		"country": "Cayman Islands",
		"noOfPages": 798,
		"code": "JKLZXC",
		"src": "images/industries/1.png",
		"publishedType": "Planned Market Research",
		"companiesCovered": "The Honest Company Inc"
	},{
		"name": "name-41",
		"description": "description-41",
		"date": "5 September, 2009",
		"publisher": "Black Swan Analysis",
		"price": 428,
		"category": "Energy",
		"reportType": "Upcoming Reports",
		"continent": "Africa",
		"region": "Ocenia",
		"country": "Central African Republic",
		"noOfPages": 665,
		"code": "QWERTY",
		"src": "images/industries/1.png",
		"publishedType": "Published Market Research",
		"companiesCovered": "Tadbik Ltd"
	},{
		"name": "name-42",
		"description": "description-42",
		"date": "11 November, 2011",
		"publisher": "BlueWeave Consulting & Resarch Pvt Ltd",
		"price": 185,
		"category": "Energy",
		"reportType": "Published Reports",
		"continent": "Asia",
		"region": "Scandinavia",
		"country": "Chad",
		"noOfPages": 202,
		"code": "UIOPAS",
		"src": "images/industries/1.png",
		"publishedType": "Planned Market Research",
		"companiesCovered": "Primpack SAE"
	},{
		"name": "name-43",
		"description": "description-43",
		"date": "29 November, 2017",
		"publisher": "Chlue Research",
		"price": 127,
		"category": "Energy",
		"reportType": "Upcoming Reports",
		"continent": "Australia",
		"region": "South Asia",
		"country": "Chile",
		"noOfPages": 698,
		"code": "DFGHJK",
		"src": "images/industries/1.png",
		"publishedType": "Published Market Research",
		"companiesCovered": "Clinique Laboratories llc"
	},{
		"name": "name-44",
		"description": "description-44",
		"date": "2 December 2019",
		"publisher": "Current Partnering",
		"price": 416,
		"category": "Energy",
		"reportType": "Published Reports",
		"continent": "Europe",
		"region": "Southern Africa",
		"country": "China",
		"noOfPages": 124,
		"code": "LZXCVB",
		"src": "images/industries/1.png",
		"publishedType": "Planned Market Research",
		"companiesCovered": "Spectrasensors Inc."
	},{
		"name": "name-45",
		"description": "description-45",
		"date": "19 December 2009",
		"publisher": "DataM Intelligence",
		"price": 625,
		"category": "Energy",
		"reportType": "Upcoming Reports",
		"continent": "North America",
		"region": "West Africa",
		"country": "Christmas Island",
		"noOfPages": 458,
		"code": "NMQWER",
		"src": "images/industries/1.png",
		"publishedType": "Published Market Research",
		"companiesCovered": "The Honest Company Inc"
	},{
		"name": "name-46",
		"description": "description-46",
		"date": "3 January, 2018",
		"publisher": "DataMarketResearch",
		"price": 856,
		"category": "Life Sciences",
		"reportType": "Published Reports",
		"continent": "Africa",
		"region": "West Europe",
		"country": "Cocos (Keeling) Islands",
		"noOfPages": 419,
		"code": "TYUIOP",
		"src": "images/industries/1.png",
		"publishedType": "Planned Market Research",
		"companiesCovered": "Tadbik Ltd"
	},{
		"name": "name-47",
		"description": "description-47",
		"date": "6 January, 2020",
		"publisher": "DelveInsight",
		"price": 137,
		"category": "Life Sciences",
		"reportType": "Upcoming Reports",
		"continent": "Asia",
		"region": "Asia Pacific",
		"country": "Colombia",
		"noOfPages": 245,
		"code": "ASDFGH",
		"src": "images/industries/1.png",
		"publishedType": "Published Market Research",
		"companiesCovered": "Primpack SAE"
	},{
		"name": "name-48",
		"description": "description-48",
		"date": "6 Feburary, 2020",
		"publisher": "Detailed Analysis Research",
		"price": 960,
		"category": "Life Sciences",
		"reportType": "Published Reports",
		"continent": "Australia",
		"region": "Bric",
		"country": "Comoros",
		"noOfPages": 547,
		"code": "JKLZXC",
		"src": "images/industries/1.png",
		"publishedType": "Planned Market Research",
		"companiesCovered": "Clinique Laboratories llc"
	},{
		"name": "name-49",
		"description": "description-49",
		"date": "7 March, 2019",
		"publisher": "99-Reports ",
		"price": 412,
		"category": "Life Sciences",
		"reportType": "Upcoming Reports",
		"continent": "Europe",
		"region": "Caribbean",
		"country": "Congo",
		"noOfPages": 253,
		"code": "QWERTY",
		"src": "images/industries/1.png",
		"publishedType": "Published Market Research",
		"companiesCovered": "Spectrasensors Inc."
	},{
		"name": "name-50",
		"description": "description-50",
		"date": "9 March, 2017",
		"publisher": "99Strategy",
		"price": 253,
		"category": "Life Sciences",
		"reportType": "Published Reports",
		"continent": "North America",
		"region": "Central Asia",
		"country": "The Democratic Republic of Congo",
		"noOfPages": 135,
		"code": "UIOPAS",
		"src": "images/industries/1.png",
		"publishedType": "Planned Market Research",
		"companiesCovered": "The Honest Company Inc"
	},{
		"name": "name-51",
		"description": "description-51",
		"date": "31 March, 2019",
		"publisher": "9Dimen Research",
		"price": 323,
		"category": "Manufacturing & Construction",
		"reportType": "Upcoming Reports",
		"continent": "Africa",
		"region": "Central America",
		"country": "Cook Islands",
		"noOfPages": 807,
		"code": "DFGHJK",
		"src": "images/industries/1.png",
		"publishedType": "Published Market Research",
		"companiesCovered": "Tadbik Ltd"
	},{
		"name": "name-52",
		"description": "description-52",
		"date": "18 June, 2019",
		"publisher": "Adroit Healthcare Services",
		"price": 783,
		"category": "Manufacturing & Construction",
		"reportType": "Published Reports",
		"continent": "Asia",
		"region": "CIS",
		"country": "Costa Rica",
		"noOfPages": 970,
		"code": "LZXCVB",
		"src": "images/industries/1.png",
		"publishedType": "Planned Market Research",
		"companiesCovered": "Primpack SAE"
	},{
		"name": "name-53",
		"description": "description-53",
		"date": "13 July, 2018",
		"publisher": "Azoth Analytics",
		"price": 272,
		"category": "Manufacturing & Construction",
		"reportType": "Upcoming Reports",
		"continent": "Australia",
		"region": "East Europe",
		"country": "Ivory Coast",
		"noOfPages": 271,
		"code": "NMQWER",
		"src": "images/industries/1.png",
		"publishedType": "Published Market Research",
		"companiesCovered": "Clinique Laboratories llc"
	},{
		"name": "name-54",
		"description": "description-54",
		"date": "22 August, 2017",
		"publisher": "BCC Research",
		"price": 703,
		"category": "Manufacturing & Construction",
		"reportType": "Published Reports",
		"continent": "Europe",
		"region": "European Union",
		"country": "Croatia",
		"noOfPages": 366,
		"code": "TYUIOP",
		"src": "images/industries/1.png",
		"publishedType": "Planned Market Research",
		"companiesCovered": "Spectrasensors Inc."
	},{
		"name": "name-55",
		"description": "description-55",
		"date": "16 September, 2019",
		"publisher": "BIS Report",
		"price": 906,
		"category": "Manufacturing & Construction",
		"reportType": "Upcoming Reports",
		"continent": "North America",
		"region": "G20",
		"country": "Cuba",
		"noOfPages": 243,
		"code": "ASDFGH",
		"src": "images/industries/1.png",
		"publishedType": "Published Market Research",
		"companiesCovered": "The Honest Company Inc"
	},{
		"name": "name-56",
		"description": "description-56",
		"date": "5 September, 2009",
		"publisher": "Bizwit Research & Consulting LLP",
		"price": 975,
		"category": "Security & Intelligence",
		"reportType": "Published Reports",
		"continent": "Africa",
		"region": "G8",
		"country": "Cyprus",
		"noOfPages": 442,
		"code": "JKLZXC",
		"src": "images/industries/1.png",
		"publishedType": "Planned Market Research",
		"companiesCovered": "Tadbik Ltd"
	},{
		"name": "name-57",
		"description": "description-57",
		"date": "11 November, 2011",
		"publisher": "Black Swan Analysis",
		"price": 198,
		"category": "Security & Intelligence",
		"reportType": "Upcoming Reports",
		"continent": "Asia",
		"region": "Latin America",
		"country": "Czech Republic",
		"noOfPages": 416,
		"code": "QWERTY",
		"src": "images/industries/1.png",
		"publishedType": "Published Market Research",
		"companiesCovered": "Primpack SAE"
	},{
		"name": "name-58",
		"description": "description-58",
		"date": "29 November, 2017",
		"publisher": "BlueWeave Consulting & Resarch Pvt Ltd",
		"price": 589,
		"category": "Security & Intelligence",
		"reportType": "Published Reports",
		"continent": "Australia",
		"region": "Micronesia",
		"country": "Denmark",
		"noOfPages": 999,
		"code": "UIOPAS",
		"src": "images/industries/1.png",
		"publishedType": "Planned Market Research",
		"companiesCovered": "Clinique Laboratories llc"
	},{
		"name": "name-59",
		"description": "description-59",
		"date": "2 December 2019",
		"publisher": "Chlue Research",
		"price": 727,
		"category": "Security & Intelligence",
		"reportType": "Upcoming Reports",
		"continent": "Europe",
		"region": "Middle Africa",
		"country": "Djibouti",
		"noOfPages": 623,
		"code": "DFGHJK",
		"src": "images/industries/1.png",
		"publishedType": "Published Market Research",
		"companiesCovered": "Spectrasensors Inc."
	},{
		"name": "name-60",
		"description": "description-60",
		"date": "19 December 2009",
		"publisher": "Current Partnering",
		"price": 299,
		"category": "Security & Intelligence",
		"reportType": "Published Reports",
		"continent": "North America",
		"region": "Middle East",
		"country": "Dominica",
		"noOfPages": 879,
		"code": "LZXCVB",
		"src": "images/industries/1.png",
		"publishedType": "Planned Market Research",
		"companiesCovered": "The Honest Company Inc"
	},{
		"name": "name-61",
		"description": "description-61",
		"date": "3 January, 2018",
		"publisher": "DataM Intelligence",
		"price": 268,
		"category": "Services",
		"reportType": "Upcoming Reports",
		"continent": "Africa",
		"region": "NAFTA",
		"country": "Dominican Republic",
		"noOfPages": 740,
		"code": "NMQWER",
		"src": "images/industries/1.png",
		"publishedType": "Published Market Research",
		"companiesCovered": "Tadbik Ltd"
	},{
		"name": "name-62",
		"description": "description-62",
		"date": "6 January, 2020",
		"publisher": "DataMarketResearch",
		"price": 696,
		"category": "Services",
		"reportType": "Published Reports",
		"continent": "Asia",
		"region": "Nothern Africa",
		"country": "East Timor",
		"noOfPages": 399,
		"code": "TYUIOP",
		"src": "images/industries/1.png",
		"publishedType": "Planned Market Research",
		"companiesCovered": "Primpack SAE"
	},{
		"name": "name-63",
		"description": "description-63",
		"date": "6 Feburary, 2020",
		"publisher": "DelveInsight",
		"price": 53,
		"category": "Services",
		"reportType": "Upcoming Reports",
		"continent": "Australia",
		"region": "Northern Europe",
		"country": "Ecuador",
		"noOfPages": 441,
		"code": "ASDFGH",
		"src": "images/industries/1.png",
		"publishedType": "Published Market Research",
		"companiesCovered": "Clinique Laboratories llc"
	},{
		"name": "name-64",
		"description": "description-64",
		"date": "7 March, 2019",
		"publisher": "Detailed Analysis Research",
		"price": 917,
		"category": "Services",
		"reportType": "Published Reports",
		"continent": "Europe",
		"region": "Ocenia",
		"country": "Egypt",
		"noOfPages": 339,
		"code": "JKLZXC",
		"src": "images/industries/1.png",
		"publishedType": "Planned Market Research",
		"companiesCovered": "Spectrasensors Inc."
	},{
		"name": "name-65",
		"description": "description-65",
		"date": "9 March, 2017",
		"publisher": "99-Reports ",
		"price": 105,
		"category": "Services",
		"reportType": "Upcoming Reports",
		"continent": "North America",
		"region": "Scandinavia",
		"country": "England",
		"noOfPages": 456,
		"code": "QWERTY",
		"src": "images/industries/1.png",
		"publishedType": "Published Market Research",
		"companiesCovered": "The Honest Company Inc"
	},{
		"name": "name-66",
		"description": "description-66",
		"date": "31 March, 2019",
		"publisher": "99Strategy",
		"price": 840,
		"category": "Technology",
		"reportType": "Published Reports",
		"continent": "Africa",
		"region": "South Asia",
		"country": "El Salvador",
		"noOfPages": 277,
		"code": "UIOPAS",
		"src": "images/industries/1.png",
		"publishedType": "Planned Market Research",
		"companiesCovered": "Tadbik Ltd"
	},{
		"name": "name-67",
		"description": "description-67",
		"date": "18 June, 2019",
		"publisher": "9Dimen Research",
		"price": 226,
		"category": "Technology",
		"reportType": "Upcoming Reports",
		"continent": "Asia",
		"region": "Southern Africa",
		"country": "Equatorial Guinea",
		"noOfPages": 486,
		"code": "DFGHJK",
		"src": "images/industries/1.png",
		"publishedType": "Published Market Research",
		"companiesCovered": "Primpack SAE"
	},{
		"name": "name-68",
		"description": "description-68",
		"date": "13 July, 2018",
		"publisher": "Adroit Healthcare Services",
		"price": 562,
		"category": "Technology",
		"reportType": "Published Reports",
		"continent": "Australia",
		"region": "West Africa",
		"country": "Eritrea",
		"noOfPages": 577,
		"code": "LZXCVB",
		"src": "images/industries/1.png",
		"publishedType": "Planned Market Research",
		"companiesCovered": "Clinique Laboratories llc"
	},{
		"name": "name-69",
		"description": "description-69",
		"date": "22 August, 2017",
		"publisher": "Azoth Analytics",
		"price": 953,
		"category": "Technology",
		"reportType": "Upcoming Reports",
		"continent": "Europe",
		"region": "West Europe",
		"country": "Estonia",
		"noOfPages": 767,
		"code": "NMQWER",
		"src": "images/industries/1.png",
		"publishedType": "Published Market Research",
		"companiesCovered": "Spectrasensors Inc."
	},{
		"name": "name-70",
		"description": "description-70",
		"date": "16 September, 2019",
		"publisher": "BCC Research",
		"price": 70,
		"category": "Technology",
		"reportType": "Published Reports",
		"continent": "North America",
		"region": "Asia Pacific",
		"country": "Ethiopia",
		"noOfPages": 526,
		"code": "TYUIOP",
		"src": "images/industries/1.png",
		"publishedType": "Planned Market Research",
		"companiesCovered": "The Honest Company Inc"
	},{
		"name": "name-71",
		"description": "description-71",
		"date": "5 September, 2009",
		"publisher": "BIS Report",
		"price": 777,
		"category": "Telecom & IT",
		"reportType": "Upcoming Reports",
		"continent": "Africa",
		"region": "Bric",
		"country": "East Timor",
		"noOfPages": 365,
		"code": "ASDFGH",
		"src": "images/industries/1.png",
		"publishedType": "Published Market Research",
		"companiesCovered": "Tadbik Ltd"
	},{
		"name": "name-72",
		"description": "description-72",
		"date": "11 November, 2011",
		"publisher": "Bizwit Research & Consulting LLP",
		"price": 456,
		"category": "Telecom & IT",
		"reportType": "Published Reports",
		"continent": "Asia",
		"region": "Caribbean",
		"country": "Ecuador",
		"noOfPages": 189,
		"code": "JKLZXC",
		"src": "images/industries/1.png",
		"publishedType": "Planned Market Research",
		"companiesCovered": "Primpack SAE"
	},{
		"name": "name-73",
		"description": "description-73",
		"date": "29 November, 2017",
		"publisher": "Black Swan Analysis",
		"price": 743,
		"category": "Telecom & IT",
		"reportType": "Upcoming Reports",
		"continent": "Australia",
		"region": "Central Asia",
		"country": "Egypt",
		"noOfPages": 354,
		"code": "QWERTY",
		"src": "images/industries/1.png",
		"publishedType": "Published Market Research",
		"companiesCovered": "Clinique Laboratories llc"
	},{
		"name": "name-74",
		"description": "description-74",
		"date": "2 December 2019",
		"publisher": "BlueWeave Consulting & Resarch Pvt Ltd",
		"price": 564,
		"category": "Telecom & IT",
		"reportType": "Published Reports",
		"continent": "Europe",
		"region": "Central America",
		"country": "England",
		"noOfPages": 943,
		"code": "UIOPAS",
		"src": "images/industries/1.png",
		"publishedType": "Planned Market Research",
		"companiesCovered": "Spectrasensors Inc."
	},{
		"name": "name-75",
		"description": "description-75",
		"date": "19 December 2009",
		"publisher": "Chlue Research",
		"price": 682,
		"category": "Telecom & IT",
		"reportType": "Upcoming Reports",
		"continent": "North America",
		"region": "CIS",
		"country": "El Salvador",
		"noOfPages": 156,
		"code": "DFGHJK",
		"src": "images/industries/1.png",
		"publishedType": "Published Market Research",
		"companiesCovered": "The Honest Company Inc"
	}
]